Caso Brand Equity
…
tibble(Base1)

## # A tibble: 1,500 x 18
##    gender   age children income famil uniqu relev loyal popul category brand
##     <dbl> <dbl>    <dbl>  <dbl> <dbl> <dbl> <dbl> <dbl> <dbl>    <dbl> <dbl>
##  1      2    59        2      2     5     6     5     6     8       12   263
##  2      1    60        2      3     1     1     1     1     1       12   263
##  3      2    NA        2      1     5     5     1     5     5       12   263
##  4      1    49        2      3     1     8     4     7     7       12   263
##  5      1    53        2      1    10     9    10     9     9       12   263
##  6      1    48        1      2     6     7     8     8     7       12   263
##  7      1    38        1      3     9     2     3     2     9       12   263
##  8      1    62        2      3     6     6     6     6     6       12   263
##  9      2    61        2      4     1     3     1     2     4       12   263
## 10      1    44        2      1     8     5     3     5     8       12   263
## # ... with 1,490 more rows, and 7 more variables: familbin <dbl>,
## #   uniqubin <dbl>, relevbin <dbl>, loyalbin <dbl>, populbin <dbl>,
## #   region <dbl>, brand_equity <dbl>
…
